project1
…
datacor <- dataNA %>% select_if(is.numeric) %>% cor(use = "pair") %>% 
    as.data.frame()

tidycor <- datacor %>% rownames_to_column("var1") %>% pivot_longer(-1, 
    names_to = "var2", values_to = "correlation")

tidycor

## # A tibble: 400 x 3
##    var1          var2                         correlation
##    <chr>         <chr>                              <dbl>
##  1 Fatal.Crashes Fatal.Crashes                     1     
##  2 Fatal.Crashes Fatalities                        0.963 
##  3 Fatal.Crashes Suspected.Serious.Crashes         0.167 
##  4 Fatal.Crashes Suspected.Serious.Injuries        0.281 
##  5 Fatal.Crashes Non..Incapacitating.Crashes       0.0151
##  6 Fatal.Crashes Non..Incapacitating.Injuries      0.0633
##  7 Fatal.Crashes Possible.Injury.Crashes          -0.0836
##  8 Fatal.Crashes Possible.Injuries                -0.0454
##  9 Fatal.Crashes Unknown.Severity.Crashes          0.354 
## 10 Fatal.Crashes Unknown.Injuries                  0.388 
## # … with 390 more rows
…
